tanggal,harga
2017-08-02,11500
2017-08-03,11500
2017-08-04,11500
2017-08-07,11500
2017-08-08,11500
2017-08-09,11500
2017-08-10,11500
2017-08-11,11500
2017-08-14,11500
2017-08-15,11500
2017-08-16,9500
2017-08-18,9500
2017-08-21,9500
2017-08-22,9500
2017-08-23,10000
2017-08-24,10000
2017-08-25,10000
2017-08-28,10000
2017-08-29,10000
2017-08-30,10500
2017-08-31,10500
2017-09-04,10500
2017-09-05,10500
2017-09-06,10000
2017-09-07,10000
2017-09-08,10000
2017-09-11,10000
2017-09-12,10000
2017-09-13,6000
2017-09-14,6000
2017-09-15,6000
2017-09-18,6000
2017-09-19,6000
2017-09-20,9000
2017-09-22,9000
2017-09-25,9000
2017-09-26,9000
2017-09-27,10000
2017-09-28,10000
2017-09-29,10000
2017-10-02,10000
2017-10-03,10000
2017-10-04,11000
2017-10-05,11000
2017-10-06,11000
2017-10-09,11000
2017-10-10,11000
2017-10-11,11500
2017-10-12,11500
2017-10-13,11500
2017-10-16,11500
2017-10-17,11500
2017-10-18,12000
2017-10-19,12000
2017-10-20,12000
2017-10-23,12000
2017-10-24,12000
2017-10-25,11750
2017-10-26,11750
2017-10-27,11750
2017-10-30,11750
2017-10-31,11750
2017-11-01,13500
2017-11-02,13500
2017-11-03,13500
2017-11-06,13500
2017-11-07,13500
2017-11-08,17000
2017-11-09,17000
2017-11-10,17000
2017-11-13,17000
2017-11-14,17000
2017-11-15,18000
2017-11-16,18000
2017-11-17,18000
2017-11-20,18000
2017-11-21,18000
2017-11-22,18500
2017-11-23,18500
2017-11-24,18500
2017-11-27,18500
2017-11-28,18500
2017-11-29,24000
2017-11-30,24000
2017-12-01,24000
2017-12-04,24000
2017-12-05,24000
2017-12-06,22000
2017-12-07,22000
2017-12-08,22000
2017-12-11,22000
2017-12-12,22000
2017-12-13,22000
2017-12-14,20000
2017-12-15,20000
2017-12-18,20000
2017-12-19,20000
2017-12-20,20000
2017-12-21,20000
2017-12-22,20000
2017-12-27,20000
2017-12-28,22500
2017-12-29,22500
2018-01-04,22500
2018-01-05,22500
2018-01-08,22500
2018-01-09,22500
2018-01-10,22500
2018-01-11,35000
2018-01-12,35000
2018-01-15,35000
2018-01-16,35000
2018-01-17,35000
2018-01-18,30000
2018-01-19,30000
2018-01-22,30000
2018-01-23,30000
2018-01-24,30000
2018-01-25,30500
2018-01-26,30500
2018-01-29,30500
2018-01-30,30500
2018-01-31,30500
2018-02-01,26000
2018-02-02,26000
2018-02-05,26000
2018-02-06,26000
2018-02-07,26000
2018-02-08,29000
2018-02-09,29000
2018-02-12,29000
2018-02-13,29000
2018-02-14,29000
2018-02-15,27500
2018-02-19,27500
2018-02-20,27500
2018-02-21,27500
2018-02-22,16000
2018-02-23,16000
2018-02-26,16000
2018-02-27,16000
2018-02-28,16000
2018-03-01,16500
2018-03-02,16500
2018-03-05,16500
2018-03-06,16500
2018-03-07,16500
2018-03-08,24500
2018-03-09,24500
2018-03-12,24500
2018-03-13,24500
2018-03-14,24500
2018-03-15,35000
2018-03-16,35000
2018-03-19,35000
2018-03-20,35000
2018-03-21,35000
2018-03-22,33500
2018-03-23,33500
2018-03-26,33500
2018-03-27,33500
2018-03-28,33500
2018-03-29,28500
2018-04-02,28500
2018-04-03,28500
2018-04-04,28500
2018-04-05,33000
2018-04-06,33000
2018-04-09,33000
2018-04-10,33000
2018-04-11,33000
2018-04-12,46000
2018-04-13,46000
2018-04-16,46000
2018-04-17,46000
2018-04-18,46000
2018-04-19,35000
2018-04-20,35000
2018-04-23,35000
2018-04-24,35000
2018-04-25,35000
2018-04-26,28000
2018-04-27,28000
2018-04-30,28000
2018-05-02,28000
2018-05-03,23000
2018-05-04,23000
2018-05-07,23000
2018-05-08,23000
2018-05-09,28000
2018-05-11,28000
2018-05-14,28000
2018-05-15,28000
2018-05-16,28000
2018-05-17,25000
2018-05-18,25000
2018-05-21,25000
2018-05-22,25000
2018-05-23,25000
2018-05-24,18000
2018-05-25,18000
2018-05-28,18000
2018-05-30,18000
2018-05-31,14000
2018-06-01,14000
2018-06-04,14000
2018-06-05,14000
2018-06-06,14000
2018-06-07,24000
2018-06-08,24000
2018-06-11,24000
2018-06-12,24000
2018-06-13,37500
2018-06-14,37500
2018-06-18,37500
2018-06-19,37500
2018-06-20,40000
2018-06-21,40000
2018-06-22,40000
2018-06-25,40000
2018-06-26,40000
2018-06-27,40000
2018-06-28,14000
2018-06-29,14000
2018-07-02,14000
2018-07-03,14000
2018-07-04,14000
2018-07-05,15000
2018-07-06,15000
2018-07-09,15000
2018-07-10,15000
2018-07-11,15000
2018-07-12,21500
2018-07-13,21500
2018-07-16,21500
2018-07-17,21500
2018-07-18,21500
2018-07-19,22000
2018-07-20,22000
2018-07-23,22000
2018-07-24,22000
2018-07-25,22000
2018-07-26,17500
2018-07-27,17500
2018-07-30,17500
2018-07-31,17500
2018-08-01,17500
2018-08-02,13500
2018-08-03,13500
2018-08-06,13500
2018-08-07,13500
2018-08-08,13500
2018-08-09,13500
2018-08-10,13500
2018-08-13,13500
2018-08-14,13500
2018-08-15,13500
2018-08-16,16000
2018-08-20,16000
2018-08-21,16000
2018-08-23,14500
2018-08-24,14500
2018-08-27,14500
2018-08-28,14500
2018-08-29,14500
2018-08-30,12000
2018-08-31,12000
2018-09-03,12000
2018-09-04,12000
2018-09-05,12000
2018-09-06,6000
2018-09-07,6000
2018-09-10,6000
2018-09-12,6000
2018-09-13,6500
2018-09-14,6500
2018-09-17,6500
2018-09-18,6500
2018-09-19,6500
2018-09-20,10000
2018-09-21,10000
2018-09-24,10000
2018-09-25,10000
2018-09-26,10000
2018-09-27,12000
2018-09-28,12000
2018-10-01,12000
2018-10-02,12000
2018-10-03,12000
2018-10-04,23500
2018-10-05,23500
2018-10-08,23500
2018-10-09,23500
2018-10-10,23500
2018-10-11,24500
2018-10-12,24500
2018-10-15,24500
2018-10-16,24500
2018-10-17,24500
2018-10-18,20000
2018-10-19,20000
2018-10-22,20000
2018-10-23,20000
2018-10-24,20000
2018-10-25,21000
2018-10-26,21000
2018-10-29,21000
2018-10-30,21000
2018-10-31,21000
2018-11-01,13500
2018-11-02,13500
2018-11-05,13500
2018-11-06,13500
2018-11-07,13500
2018-11-08,19000
2018-11-09,19000
2018-11-12,19000
2018-11-13,19000
2018-11-14,19000
2018-11-15,19000
2018-11-16,19000
2018-11-19,19000
2018-11-21,19000
2018-11-22,15000
2018-11-23,15000
2018-11-26,15000
2018-11-27,15000
2018-11-28,15000
2018-11-29,13000
2018-11-30,13000
2018-12-03,13000
2018-12-04,13000
2018-12-05,13000
2018-12-06,15500
2018-12-07,15500
2018-12-10,15500
2018-12-11,15500
2018-12-12,15500
2018-12-13,19000
2018-12-14,19000
2018-12-17,19000
2018-12-18,19000
2018-12-19,19000
2018-12-20,19500
2018-12-21,19500
2018-12-24,19500
2018-12-26,19500
2018-12-27,23000
2018-12-28,23000
2018-12-31,23000
2019-01-03,20000
2019-01-04,20000
2019-01-07,20000
2019-01-08,20000
2019-01-09,20000
2019-01-10,21250
2019-01-11,21250
2019-01-14,21250
2019-01-15,21250
2019-01-16,21250
2019-01-17,15500
2019-01-18,15500
2019-01-21,15500
2019-01-22,15500
2019-01-23,15500
2019-01-24,14000
2019-01-25,14000
2019-01-28,14000
2019-01-29,14000
2019-01-30,14000
2019-01-31,11000
2019-02-01,11000
2019-02-04,11000
2019-02-06,11000
2019-02-07,9000
2019-02-08,9000
2019-02-11,9000
2019-02-12,9000
2019-02-13,9000
2019-02-14,9000
2019-02-15,9000
2019-02-18,9000
2019-02-19,9000
2019-02-20,9000
2019-02-21,6500
2019-02-22,6500
2019-02-25,6500
2019-02-26,6500
2019-02-27,6500
2019-02-28,6500
2019-03-01,6500
2019-03-04,6500
2019-03-05,6500
2019-03-06,6500
2019-03-08,6500
2019-03-11,6500
2019-03-12,6500
2019-03-13,6500
2019-03-14,6500
2019-03-15,6500
2019-03-18,6500
2019-03-19,6500
2019-03-20,6500
2019-03-21,12000
2019-03-22,12000
2019-03-25,12000
2019-03-26,12000
2019-03-27,12000
2019-03-28,14000
2019-03-29,14000
2019-04-01,14000
2019-04-02,14000
2019-04-04,16250
2019-04-05,16250
2019-04-08,16250
2019-04-09,16250
2019-04-10,16250
2019-04-11,23500
2019-04-12,23500
2019-04-15,23500
2019-04-16,23500
2019-04-17,23500
2019-04-18,25000
2019-04-22,25000
2019-04-23,25000
2019-04-24,25000
2019-04-25,27000
2019-04-26,27000
2019-04-29,27000
2019-04-30,27000
2019-05-02,24500
2019-05-03,24500
2019-05-06,24500
2019-05-07,24500
2019-05-08,24500
2019-05-09,30000
2019-05-10,30000
2019-05-13,30000
2019-05-14,30000
2019-05-15,30000
2019-05-16,25000
2019-05-17,25000
2019-05-20,25000
2019-05-21,25000
2019-05-22,25000
2019-05-23,22000
2019-05-24,22000
2019-05-27,22000
2019-05-28,22000
2019-05-29,22000
2019-05-31,36000
2019-06-03,36000
2019-06-04,42500
2019-06-05,42500
2019-06-06,42500
2019-06-07,42500
2019-06-10,42500
2019-06-11,42500
2019-06-12,42500
2019-06-13,25000
2019-06-14,25000
2019-06-17,25000
2019-06-18,25000
2019-06-19,25000
2019-06-20,32500
2019-06-21,32500
2019-06-24,32500
2019-06-25,32500
2019-06-26,32500
2019-06-27,41500
2019-06-28,41500
2019-07-01,41500
2019-07-02,41500
2019-07-03,41500
2019-07-04,47000
2019-07-05,47000
2019-07-08,47000
2019-07-09,47000
2019-07-10,47000
2019-07-11,44000
2019-07-12,44000
2019-07-15,44000
2019-07-16,44000
2019-07-17,44000
2019-07-18,47500
2019-07-19,47500
2019-07-22,47500
2019-07-23,47500
2019-07-24,47500
2019-07-25,45000
2019-07-26,45000
2019-07-29,45000
2019-07-30,45000
2019-07-31,45000
2019-08-01,37500
2019-08-02,37500
2019-08-05,37500
2019-08-06,37500
2019-08-07,37500
2019-08-08,49000
2019-08-09,49000
2019-08-12,49000
2019-08-13,49000
2019-08-14,49000
2019-08-15,47500
2019-08-16,47500
2019-08-19,47500
2019-08-20,47500
2019-08-21,47500
2019-08-22,20000
2019-08-23,20000
2019-08-26,20000
2019-08-27,20000
2019-08-28,20000
2019-08-29,18500
2019-08-30,18500
2019-09-02,18500
2019-09-03,18500
2019-09-04,18500
2019-09-05,18500
2019-09-06,18500
2019-09-09,18500
2019-09-10,18500
2019-09-11,18500
2019-09-12,14500
2019-09-13,14500
2019-09-16,14500
2019-09-17,14500
2019-09-18,14500
2019-09-19,17000
2019-09-20,17000
2019-09-23,17000
2019-09-24,17000
2019-09-25,17000
2019-09-26,17000
2019-09-27,17000
2019-09-30,17000
2019-10-01,17000
2019-10-02,17000
2019-10-03,18000
2019-10-04,18000
2019-10-07,18000
2019-10-08,18000
2019-10-09,18000
2019-10-10,30000
2019-10-11,30000
2019-10-14,30000
2019-10-15,30000
2019-10-16,30000
2019-10-17,29000
2019-10-18,29000
2019-10-21,29000
2019-10-22,29000
2019-10-23,29000
2019-10-24,20000
2019-10-25,20000
2019-10-28,20000
2019-10-29,20000
2019-10-30,20000
2019-10-31,17500
2019-11-01,17500
2019-11-04,17500
2019-11-05,17500
2019-11-06,17500
2019-11-07,16500
2019-11-08,16500
2019-11-11,16500
2019-11-12,16500
2019-11-13,16500
2019-11-14,14000
2019-11-15,14000
2019-11-18,14000
2019-11-19,14000
2019-11-20,14000
2019-11-21,12000
2019-11-22,12000
2019-11-25,12000
2019-11-26,12000
2019-11-27,12000
2019-11-28,14000
2019-11-29,14000
2019-12-02,14000
2019-12-03,14000
2019-12-04,14000
2019-12-05,15000
2019-12-06,15000
2019-12-09,15000
2019-12-10,15000
2019-12-11,15000
2019-12-12,15000
2019-12-13,15000
2019-12-16,15000
2019-12-17,15000
2019-12-18,15000
2019-12-19,20500
2019-12-20,20500
2019-12-23,20500
2019-12-26,26000
2019-12-27,26000
2019-12-30,26000
2019-12-31,26000
2020-01-02,32500
2020-01-03,32500
2020-01-06,32500
2020-01-07,32500
2020-01-08,32500
2020-01-09,45000
2020-01-10,45000
2020-01-13,45000
2020-01-14,45000
2020-01-15,45000
2020-01-16,53500
2020-01-17,53500
2020-01-20,53500
2020-01-21,53500
2020-01-22,53500
2020-01-23,58500
2020-01-24,58500
2020-01-27,58500
2020-01-28,58500
2020-01-29,58500
2020-01-30,60000
2020-01-31,60000
2020-02-03,60000
2020-02-04,60000
2020-02-05,60000
2020-02-06,60000
2020-02-07,60000
2020-02-10,60000
2020-02-11,60000
2020-02-12,60000
2020-02-13,52500
2020-02-14,52500
2020-02-17,52500
2020-02-18,52500
2020-02-19,52500
2020-02-20,52500
2020-02-21,52500
2020-02-24,52500
2020-02-25,52500
2020-02-26,52500
2020-02-27,50000
2020-02-28,50000
2020-03-02,50000
2020-03-03,50000
2020-03-04,50000
2020-03-05,35000
2020-03-06,35000
2020-03-09,35000
2020-03-10,35000
2020-03-11,35000
2020-03-12,25000
2020-03-13,25000
2020-03-16,25000
2020-03-17,25000
2020-03-18,25000
2020-03-19,19000
2020-03-20,19000
2020-03-23,19000
2020-03-24,19000
2020-03-26,15000
2020-03-27,15000
2020-03-30,15000
2020-03-31,15000
2020-04-01,15000
2020-04-02,11000
2020-04-03,11000
2020-04-06,11000
2020-04-07,11000
2020-04-08,11000
2020-04-09,12000
2020-04-13,12000
2020-04-14,12000
2020-04-15,12000
2020-04-16,8000
2020-04-17,8000
2020-04-20,8000
2020-04-21,8000
2020-04-22,8000
2020-04-23,11000
2020-04-24,11000
2020-04-27,11000
2020-04-28,11000
2020-04-29,11000
2020-04-30,7000
2020-05-04,7000
2020-05-05,7000
2020-05-06,7000
2020-05-08,8500
2020-05-11,8500
2020-05-12,8500
2020-05-13,8500
2020-05-14,9000
2020-05-15,9000
2020-05-18,9000
2020-05-19,9000
2020-05-20,9000
2020-05-28,13000
2020-05-29,13000
2020-06-02,13000
2020-06-03,13000
2020-06-04,6000
2020-06-05,6000
2020-06-08,6000
2020-06-09,6000
2020-06-10,6000
2020-06-11,6500
2020-06-12,6500
2020-06-15,6500
2020-06-16,6500
2020-06-17,6500
2020-06-18,14000
2020-06-19,14000
2020-06-22,14000
2020-06-23,14000
2020-06-24,14000
2020-06-25,11000
2020-06-26,11000
2020-06-29,11000
2020-06-30,11000
2020-07-01,11000
2020-07-02,9500
2020-07-03,9500
2020-07-06,9500
2020-07-07,9500
2020-07-08,9500
2020-07-09,10500
2020-07-10,10500
2020-07-13,10500
2020-07-14,10500
2020-07-15,10500
2020-07-16,14000
2020-07-17,14000
2020-07-20,14000
2020-07-21,14000
2020-07-22,14000
2020-07-23,14000
2020-07-24,14000
2020-07-27,14000
2020-07-28,14000
2020-07-29,14000
2020-07-30,16500
2020-08-03,16500
2020-08-04,16500
2020-08-05,16500
2020-08-06,18000
2020-08-07,18000
2020-08-10,18000
2020-08-11,18000
2020-08-12,18000
2020-08-13,10500
2020-08-14,10500
2020-08-18,10500
2020-08-19,10500
2020-08-24,9500
2020-08-25,9500
2020-08-26,9500
2020-08-27,9500
2020-08-28,9500
2020-08-31,9500
2020-09-01,9500
2020-09-02,9500
2020-09-03,15500
2020-09-04,15500
2020-09-07,15500
2020-09-08,15500
2020-09-09,15500
2020-09-10,18000
2020-09-11,18000
2020-09-14,18000
2020-09-15,18000
2020-09-16,18000
2020-09-17,20000
2020-09-18,20000
2020-09-21,20000
2020-09-22,20000
2020-09-23,20000
2020-09-24,18500
2020-09-25,18500
2020-09-28,18500
2020-09-29,18500
2020-09-30,18500
2020-10-01,23000
2020-10-02,23000
2020-10-05,23000
2020-10-06,23000
2020-10-07,23000
2020-10-08,31000
2020-10-09,31000
2020-10-12,31000
2020-10-13,31000
2020-10-14,31000
2020-10-15,24000
2020-10-16,24000
2020-10-19,24000
2020-10-20,24000
2020-10-21,24000
2020-10-22,24000
2020-10-23,24000
2020-10-26,24000
2020-10-27,24000
2020-11-02,26000
2020-11-03,26000
2020-11-04,26000
2020-11-05,20000
2020-11-06,20000
2020-11-09,20000
2020-11-10,20000
2020-11-11,20000
2020-11-12,21500
2020-11-13,21500
2020-11-16,21500
2020-11-17,21500
2020-11-18,21500
2020-11-19,27500
2020-11-20,27500
2020-11-23,27500
2020-11-24,27500
2020-11-25,27500
2020-11-26,29000
2020-11-27,29000
2020-11-30,29000
2020-12-01,29000
2020-12-02,29000
2020-12-03,48500
2020-12-04,48500
2020-12-07,48500
2020-12-08,48500
2020-12-10,48500
2020-12-11,48500
2020-12-14,48500
2020-12-15,48500
2020-12-16,48500
2020-12-17,44000
2020-12-18,44000
2020-12-21,44000
2020-12-22,44000
2020-12-23,44000
2020-12-28,42500
2020-12-29,42500
2020-12-30,38500
2021-01-04,38500
2021-01-05,38500
2021-01-06,38500
2021-01-07,24500
2021-01-08,24500
2021-01-11,24500
2021-01-12,24500
2021-01-13,24500
2021-01-14,23500
2021-01-15,23500
2021-01-18,23500
2021-01-19,23500
2021-01-20,23500
2021-01-21,22500
2021-01-22,22500
2021-01-25,22500
2021-01-26,22500
2021-01-27,22500
2021-01-28,25500
2021-01-29,25500
2021-02-01,25500
2021-02-02,25500
2021-02-03,25500
2021-02-04,47500
2021-02-05,47500
2021-02-08,47500
2021-02-09,47500
2021-02-10,47500
2021-02-11,33500
2021-02-15,33500
2021-02-16,33500
2021-02-17,33500
2021-02-18,24500
2021-02-19,24500
2021-02-22,24500
2021-02-23,24500
2021-02-24,24500
2021-02-25,24500
2021-02-26,24500
2021-03-01,24500
2021-03-02,24500
2021-03-03,24500
2021-03-04,29000
2021-03-05,29000
2021-03-08,29000
2021-03-09,29000
2021-03-10,29000
2021-03-12,21000
2021-03-15,21000
2021-03-16,21000
2021-03-17,21000
2021-03-18,21000
2021-03-19,21000
2021-03-22,21000
2021-03-23,21000
2021-03-24,21000
2021-03-25,31000
2021-03-26,31000
2021-03-29,31000
2021-03-30,31000
2021-03-31,31000
2021-04-01,39000
2021-04-05,39000
2021-04-06,39000
2021-04-07,39000
2021-04-08,41500
2021-04-09,41500
2021-04-12,41500
2021-04-13,41500
2021-04-14,41500
2021-04-15,41500
2021-04-16,41500
2021-04-19,41500
2021-04-20,41500
2021-04-21,41500
2021-04-22,31500
2021-04-23,31500
2021-04-26,31500
2021-04-27,31500
2021-04-28,31500
2021-04-29,22000
2021-04-30,22000
2021-05-03,22000
2021-05-04,22000
2021-05-05,22000
2021-05-06,29500
2021-05-07,29500
2021-05-10,29500
2021-05-11,32500
2021-05-17,32500
2021-05-18,32500
2021-05-19,32500
2021-05-20,17500
2021-05-21,17500
2021-05-24,17500
2021-05-25,17500
2021-05-27,13500
2021-05-28,13500
2021-05-31,13500