tanggal,harga
2017-08-02,10750
2017-08-03,10750
2017-08-04,10750
2017-08-07,10750
2017-08-08,10750
2017-08-09,10750
2017-08-10,10750
2017-08-11,10750
2017-08-14,10750
2017-08-15,10750
2017-08-16,10750
2017-08-18,10750
2017-08-21,10750
2017-08-22,10750
2017-08-23,10750
2017-08-24,10750
2017-08-25,10750
2017-08-28,10750
2017-08-29,10750
2017-08-30,10750
2017-08-31,10750
2017-09-04,10750
2017-09-05,10750
2017-09-06,10750
2017-09-07,10750
2017-09-08,10750
2017-09-11,10750
2017-09-12,10750
2017-09-13,10750
2017-09-14,10750
2017-09-15,10750
2017-09-18,10750
2017-09-19,10750
2017-09-20,10750
2017-09-22,10750
2017-09-25,10750
2017-09-26,10750
2017-09-27,10750
2017-09-28,10750
2017-09-29,10750
2017-10-02,10750
2017-10-03,10750
2017-10-04,10600
2017-10-05,10600
2017-10-06,10600
2017-10-09,10600
2017-10-10,10600
2017-10-11,10950
2017-10-12,10950
2017-10-13,10950
2017-10-16,10950
2017-10-17,10950
2017-10-18,10950
2017-10-19,10950
2017-10-20,10950
2017-10-23,10950
2017-10-24,10950
2017-10-25,10900
2017-10-26,10900
2017-10-27,10900
2017-10-30,10900
2017-10-31,10900
2017-11-01,10900
2017-11-02,10900
2017-11-03,10900
2017-11-06,10900
2017-11-07,10900
2017-11-08,10900
2017-11-09,10900
2017-11-10,10900
2017-11-13,10900
2017-11-14,10900
2017-11-15,10900
2017-11-16,10900
2017-11-17,10900
2017-11-20,10900
2017-11-21,10900
2017-11-22,10900
2017-11-23,10900
2017-11-24,10900
2017-11-27,10900
2017-11-28,10900
2017-11-29,10900
2017-11-30,10900
2017-12-01,10900
2017-12-04,10900
2017-12-05,10900
2017-12-06,10850
2017-12-07,10850
2017-12-08,10850
2017-12-11,10850
2017-12-12,10850
2017-12-13,10850
2017-12-14,10850
2017-12-15,10850
2017-12-18,10850
2017-12-19,10850
2017-12-20,10850
2017-12-21,10850
2017-12-22,10850
2017-12-27,10850
2017-12-28,10850
2017-12-29,10850
2018-01-04,11000
2018-01-05,11000
2018-01-08,11000
2018-01-09,11000
2018-01-10,11000
2018-01-11,10850
2018-01-12,10850
2018-01-15,10850
2018-01-16,10850
2018-01-17,10850
2018-01-18,10850
2018-01-19,10850
2018-01-22,10850
2018-01-23,10850
2018-01-24,10850
2018-01-25,10850
2018-01-26,10850
2018-01-29,10850
2018-01-30,10850
2018-01-31,10850
2018-02-01,10650
2018-02-02,10650
2018-02-05,10650
2018-02-06,10650
2018-02-07,10650
2018-02-08,10650
2018-02-09,10650
2018-02-12,10650
2018-02-13,10650
2018-02-14,10650
2018-02-15,10650
2018-02-19,10650
2018-02-20,10650
2018-02-21,10650
2018-02-22,10700
2018-02-23,10700
2018-02-26,10700
2018-02-27,10700
2018-02-28,10700
2018-03-01,10700
2018-03-02,10700
2018-03-05,10700
2018-03-06,10700
2018-03-07,10700
2018-03-08,10700
2018-03-09,10700
2018-03-12,10700
2018-03-13,10700
2018-03-14,10700
2018-03-15,10700
2018-03-16,10700
2018-03-19,10700
2018-03-20,10700
2018-03-21,10700
2018-03-22,10700
2018-03-23,10700
2018-03-26,10700
2018-03-27,10700
2018-03-28,10700
2018-03-29,10700
2018-04-02,10700
2018-04-03,10700
2018-04-04,10700
2018-04-05,10700
2018-04-06,10700
2018-04-09,10700
2018-04-10,10700
2018-04-11,10700
2018-04-12,10700
2018-04-13,10700
2018-04-16,10700
2018-04-17,10700
2018-04-18,10700
2018-04-19,10700
2018-04-20,10700
2018-04-23,10700
2018-04-24,10700
2018-04-25,10700
2018-04-26,11200
2018-04-27,11200
2018-04-30,11200
2018-05-02,11200
2018-05-03,11050
2018-05-04,11050
2018-05-07,11050
2018-05-08,11050
2018-05-09,11050
2018-05-11,11050
2018-05-14,11050
2018-05-15,11050
2018-05-16,11050
2018-05-17,11050
2018-05-18,11050
2018-05-21,11050
2018-05-22,11050
2018-05-23,11050
2018-05-24,11050
2018-05-25,11050
2018-05-28,11050
2018-05-30,11050
2018-05-31,11050
2018-06-01,11050
2018-06-04,11050
2018-06-05,11050
2018-06-06,11050
2018-06-07,11050
2018-06-08,11050
2018-06-11,11050
2018-06-12,11050
2018-06-13,11050
2018-06-14,11050
2018-06-18,11050
2018-06-19,11050
2018-06-20,11050
2018-06-21,11050
2018-06-22,11050
2018-06-25,11050
2018-06-26,11050
2018-06-27,11050
2018-06-28,11050
2018-06-29,11050
2018-07-02,11050
2018-07-03,11050
2018-07-04,11050
2018-07-05,11050
2018-07-06,11050
2018-07-09,11050
2018-07-10,11050
2018-07-11,11050
2018-07-12,11050
2018-07-13,11050
2018-07-16,11050
2018-07-17,11050
2018-07-18,11050
2018-07-19,10200
2018-07-20,10200
2018-07-23,10200
2018-07-24,10200
2018-07-25,10200
2018-07-26,10200
2018-07-27,10200
2018-07-30,10200
2018-07-31,10200
2018-08-01,10200
2018-08-02,10200
2018-08-03,10200
2018-08-06,10200
2018-08-07,10200
2018-08-08,10200
2018-08-09,10200
2018-08-10,10200
2018-08-13,10200
2018-08-14,10200
2018-08-15,10200
2018-08-16,10200
2018-08-20,10200
2018-08-21,10200
2018-08-23,10200
2018-08-24,10200
2018-08-27,10200
2018-08-28,10200
2018-08-29,10200
2018-08-30,10200
2018-08-31,10200
2018-09-03,10200
2018-09-04,10200
2018-09-05,10200
2018-09-06,10250
2018-09-07,10250
2018-09-10,10250
2018-09-12,10250
2018-09-13,10250
2018-09-14,10250
2018-09-17,10250
2018-09-18,10250
2018-09-19,10250
2018-09-20,10250
2018-09-21,10250
2018-09-24,10250
2018-09-25,10250
2018-09-26,10250
2018-09-27,10250
2018-09-28,10250
2018-10-01,10250
2018-10-02,10250
2018-10-03,10250
2018-10-04,10250
2018-10-05,10250
2018-10-08,10250
2018-10-09,10250
2018-10-10,10250
2018-10-11,10250
2018-10-12,10250
2018-10-15,10250
2018-10-16,10250
2018-10-17,10250
2018-10-18,10250
2018-10-19,10250
2018-10-22,10250
2018-10-23,10250
2018-10-24,10250
2018-10-25,10250
2018-10-26,10250
2018-10-29,10250
2018-10-30,10250
2018-10-31,10250
2018-11-01,9600
2018-11-02,9600
2018-11-05,9600
2018-11-06,9600
2018-11-07,9600
2018-11-08,9600
2018-11-09,9600
2018-11-12,9600
2018-11-13,9600
2018-11-14,9600
2018-11-15,9600
2018-11-16,9600
2018-11-19,9600
2018-11-21,9600
2018-11-22,9600
2018-11-23,9600
2018-11-26,9600
2018-11-27,9600
2018-11-28,9600
2018-11-29,9600
2018-11-30,9600
2018-12-03,9600
2018-12-04,9600
2018-12-05,9600
2018-12-06,9600
2018-12-07,9600
2018-12-10,9600
2018-12-11,9600
2018-12-12,9600
2018-12-13,9600
2018-12-14,9600
2018-12-17,9600
2018-12-18,9600
2018-12-19,9600
2018-12-20,9600
2018-12-21,9600
2018-12-24,9600
2018-12-26,9600
2018-12-27,9600
2018-12-28,9600
2018-12-31,9600
2019-01-03,9600
2019-01-04,9600
2019-01-07,9600
2019-01-08,9600
2019-01-09,9600
2019-01-10,9600
2019-01-11,9600
2019-01-14,9600
2019-01-15,9600
2019-01-16,9600
2019-01-17,9650
2019-01-18,9650
2019-01-21,9650
2019-01-22,9650
2019-01-23,9650
2019-01-24,9650
2019-01-25,9650
2019-01-28,9650
2019-01-29,9650
2019-01-30,9650
2019-01-31,9650
2019-02-01,9650
2019-02-04,9650
2019-02-06,9650
2019-02-07,10000
2019-02-08,10000
2019-02-11,10000
2019-02-12,10000
2019-02-13,10000
2019-02-14,10000
2019-02-15,10000
2019-02-18,10000
2019-02-19,10000
2019-02-20,10000
2019-02-21,10000
2019-02-22,10000
2019-02-25,10000
2019-02-26,10000
2019-02-27,10000
2019-02-28,10000
2019-03-01,10000
2019-03-04,10000
2019-03-05,10000
2019-03-06,10000
2019-03-08,10450
2019-03-11,10450
2019-03-12,10450
2019-03-13,10450
2019-03-14,10450
2019-03-15,10450
2019-03-18,10450
2019-03-19,10450
2019-03-20,10450
2019-03-21,10450
2019-03-22,10450
2019-03-25,10450
2019-03-26,10450
2019-03-27,10450
2019-03-28,10450
2019-03-29,10450
2019-04-01,10450
2019-04-02,10450
2019-04-04,10450
2019-04-05,10450
2019-04-08,10450
2019-04-09,10450
2019-04-10,10450
2019-04-11,10450
2019-04-12,10450
2019-04-15,10450
2019-04-16,10450
2019-04-17,10450
2019-04-18,10350
2019-04-22,10350
2019-04-23,10350
2019-04-24,10350
2019-04-25,10200
2019-04-26,10200
2019-04-29,10200
2019-04-30,10200
2019-05-02,10100
2019-05-03,10100
2019-05-06,10100
2019-05-07,10100
2019-05-08,10100
2019-05-09,10100
2019-05-10,10100
2019-05-13,10100
2019-05-14,10100
2019-05-15,10100
2019-05-16,10100
2019-05-17,10100
2019-05-20,10100
2019-05-21,10100
2019-05-22,10100
2019-05-23,10100
2019-05-24,10100
2019-05-27,10100
2019-05-28,10100
2019-05-29,10100
2019-05-31,10100
2019-06-03,10100
2019-06-04,11600
2019-06-05,11600
2019-06-06,11600
2019-06-07,11600
2019-06-10,11600
2019-06-11,11600
2019-06-12,11600
2019-06-13,11600
2019-06-14,11600
2019-06-17,11600
2019-06-18,11600
2019-06-19,11600
2019-06-20,11600
2019-06-21,11600
2019-06-24,11600
2019-06-25,11600
2019-06-26,11600
2019-06-27,11650
2019-06-28,11650
2019-07-01,11650
2019-07-02,11650
2019-07-03,11650
2019-07-04,11650
2019-07-05,11650
2019-07-08,11650
2019-07-09,11650
2019-07-10,11650
2019-07-11,11650
2019-07-12,11650
2019-07-15,11650
2019-07-16,11650
2019-07-17,11650
2019-07-18,11650
2019-07-19,11650
2019-07-22,11650
2019-07-23,11650
2019-07-24,11650
2019-07-25,11650
2019-07-26,11650
2019-07-29,11650
2019-07-30,11650
2019-07-31,11650
2019-08-01,11250
2019-08-02,11250
2019-08-05,11250
2019-08-06,11250
2019-08-07,11250
2019-08-08,11250
2019-08-09,11250
2019-08-12,11250
2019-08-13,11250
2019-08-14,11250
2019-08-15,11250
2019-08-16,11250
2019-08-19,11250
2019-08-20,11250
2019-08-21,11250
2019-08-22,11250
2019-08-23,11250
2019-08-26,11250
2019-08-27,11250
2019-08-28,11250
2019-08-29,11250
2019-08-30,11250
2019-09-02,11250
2019-09-03,11250
2019-09-04,11250
2019-09-05,11250
2019-09-06,11250
2019-09-09,11250
2019-09-10,11250
2019-09-11,11250
2019-09-12,11250
2019-09-13,11250
2019-09-16,11250
2019-09-17,11250
2019-09-18,11250
2019-09-19,11250
2019-09-20,11250
2019-09-23,11250
2019-09-24,11250
2019-09-25,11250
2019-09-26,11250
2019-09-27,11250
2019-09-30,11250
2019-10-01,11250
2019-10-02,11250
2019-10-03,11250
2019-10-04,11250
2019-10-07,11250
2019-10-08,11250
2019-10-09,11250
2019-10-10,11250
2019-10-11,11250
2019-10-14,11250
2019-10-15,11250
2019-10-16,11250
2019-10-17,11250
2019-10-18,11250
2019-10-21,11250
2019-10-22,11250
2019-10-23,11250
2019-10-24,11250
2019-10-25,11250
2019-10-28,11250
2019-10-29,11250
2019-10-30,11250
2019-10-31,11250
2019-11-01,11250
2019-11-04,11250
2019-11-05,11250
2019-11-06,11250
2019-11-07,11250
2019-11-08,11250
2019-11-11,11250
2019-11-12,11250
2019-11-13,11250
2019-11-14,11750
2019-11-15,11750
2019-11-18,11750
2019-11-19,11750
2019-11-20,11750
2019-11-21,11750
2019-11-22,11750
2019-11-25,11750
2019-11-26,11750
2019-11-27,11750
2019-11-28,11750
2019-11-29,11750
2019-12-02,11750
2019-12-03,11750
2019-12-04,11750
2019-12-05,11750
2019-12-06,11750
2019-12-09,11750
2019-12-10,11750
2019-12-11,11750
2019-12-12,11750
2019-12-13,11750
2019-12-16,11750
2019-12-17,11750
2019-12-18,11750
2019-12-19,11750
2019-12-20,11750
2019-12-23,11750
2019-12-26,12250
2019-12-27,12250
2019-12-30,12250
2019-12-31,12250
2020-01-02,12300
2020-01-03,12300
2020-01-06,12300
2020-01-07,12300
2020-01-08,12300
2020-01-09,12300
2020-01-10,12300
2020-01-13,12300
2020-01-14,12300
2020-01-15,12300
2020-01-16,12300
2020-01-17,12300
2020-01-20,12300
2020-01-21,12300
2020-01-22,12300
2020-01-23,12300
2020-01-24,12300
2020-01-27,12300
2020-01-28,12300
2020-01-29,12300
2020-01-30,12300
2020-01-31,12300
2020-02-03,12300
2020-02-04,12300
2020-02-05,12300
2020-02-06,12750
2020-02-07,12750
2020-02-10,12750
2020-02-11,12750
2020-02-12,12750
2020-02-13,13500
2020-02-14,13500
2020-02-17,13500
2020-02-18,13500
2020-02-19,13500
2020-02-20,13000
2020-02-21,13000
2020-02-24,13000
2020-02-25,13000
2020-02-26,13000
2020-02-27,13000
2020-02-28,13000
2020-03-02,13000
2020-03-03,13000
2020-03-04,13000
2020-03-05,15700
2020-03-06,15700
2020-03-09,15700
2020-03-10,15700
2020-03-11,15700
2020-03-12,15600
2020-03-13,15600
2020-03-16,15600
2020-03-17,15600
2020-03-18,15600
2020-03-19,16850
2020-03-20,16850
2020-03-23,16850
2020-03-24,16850
2020-03-26,17450
2020-03-27,17450
2020-03-30,17450
2020-03-31,17450
2020-04-01,17450
2020-04-02,16850
2020-04-03,16850
2020-04-06,16850
2020-04-07,16850
2020-04-08,16850
2020-04-09,17350
2020-04-13,17350
2020-04-14,17350
2020-04-15,17350
2020-04-16,17250
2020-04-17,17250
2020-04-20,17250
2020-04-21,17250
2020-04-22,17250
2020-04-23,17250
2020-04-24,17250
2020-04-27,17250
2020-04-28,17250
2020-04-29,17250
2020-04-30,15550
2020-05-04,15550
2020-05-05,15550
2020-05-06,15550
2020-05-08,14950
2020-05-11,14950
2020-05-12,14950
2020-05-13,14950
2020-05-14,13650
2020-05-15,13650
2020-05-18,13650
2020-05-19,13650
2020-05-20,13650
2020-05-28,13650
2020-05-29,13650
2020-06-02,13650
2020-06-03,13650
2020-06-04,12900
2020-06-05,12900
2020-06-08,12900
2020-06-09,12900
2020-06-10,12900
2020-06-11,12550
2020-06-12,12550
2020-06-15,12550
2020-06-16,12550
2020-06-17,12550
2020-06-18,11550
2020-06-19,11550
2020-06-22,11550
2020-06-23,11550
2020-06-24,11550
2020-06-25,11350
2020-06-26,11350
2020-06-29,11350
2020-06-30,11350
2020-07-01,11350
2020-07-02,11500
2020-07-03,11500
2020-07-06,11500
2020-07-07,11500
2020-07-08,11500
2020-07-09,11650
2020-07-10,11650
2020-07-13,11650
2020-07-14,11650
2020-07-15,11650
2020-07-16,11650
2020-07-17,11650
2020-07-20,11650
2020-07-21,11650
2020-07-22,11650
2020-07-23,11950
2020-07-24,11950
2020-07-27,11950
2020-07-28,11950
2020-07-29,11950
2020-07-30,11900
2020-08-03,11900
2020-08-04,11900
2020-08-05,11900
2020-08-06,11850
2020-08-07,11850
2020-08-10,11850
2020-08-11,11850
2020-08-12,11850
2020-08-13,11850
2020-08-14,11850
2020-08-18,11850
2020-08-19,11850
2020-08-24,11850
2020-08-25,11850
2020-08-26,11850
2020-08-27,11850
2020-08-28,11850
2020-08-31,11850
2020-09-01,11850
2020-09-02,11850
2020-09-03,12150
2020-09-04,12150
2020-09-07,12150
2020-09-08,12150
2020-09-09,12150
2020-09-10,11650
2020-09-11,11650
2020-09-14,11650
2020-09-15,11650
2020-09-16,11650
2020-09-17,11450
2020-09-18,11450
2020-09-21,11450
2020-09-22,11450
2020-09-23,11450
2020-09-24,11500
2020-09-25,11500
2020-09-28,11500
2020-09-29,11500
2020-09-30,11500
2020-10-01,11550
2020-10-02,11550
2020-10-05,11550
2020-10-06,11550
2020-10-07,11550
2020-10-08,11600
2020-10-09,11600
2020-10-12,11600
2020-10-13,11600
2020-10-14,11600
2020-10-15,11650
2020-10-16,11650
2020-10-19,11650
2020-10-20,11650
2020-10-21,11650
2020-10-22,11650
2020-10-23,11650
2020-10-26,11650
2020-10-27,11650
2020-11-02,11700
2020-11-03,11700
2020-11-04,11700
2020-11-05,11750
2020-11-06,11750
2020-11-09,11750
2020-11-10,11750
2020-11-11,11750
2020-11-12,11700
2020-11-13,11700
2020-11-16,11700
2020-11-17,11700
2020-11-18,11700
2020-11-19,11700
2020-11-20,11700
2020-11-23,11700
2020-11-24,11700
2020-11-25,11700
2020-11-26,11650
2020-11-27,11650
2020-11-30,11650
2020-12-01,11650
2020-12-02,11650
2020-12-03,11700
2020-12-04,11700
2020-12-07,11700
2020-12-08,11700
2020-12-10,11700
2020-12-11,11700
2020-12-14,11700
2020-12-15,11700
2020-12-16,11700
2020-12-17,11700
2020-12-18,11700
2020-12-21,11700
2020-12-22,11700
2020-12-23,11700
2020-12-28,11650
2020-12-29,11650
2020-12-30,11650
2021-01-04,11650
2021-01-05,11650
2021-01-06,11650
2021-01-07,11600
2021-01-08,11600
2021-01-11,11600
2021-01-12,11600
2021-01-13,11600
2021-01-14,11550
2021-01-15,11550
2021-01-18,11550
2021-01-19,11550
2021-01-20,11550
2021-01-21,11200
2021-01-22,11200
2021-01-25,11200
2021-01-26,11200
2021-01-27,11200
2021-01-28,11150
2021-01-29,11150
2021-02-01,11150
2021-02-02,11150
2021-02-03,11150
2021-02-04,11450
2021-02-05,11450
2021-02-08,11450
2021-02-09,11450
2021-02-10,11450
2021-02-11,11350
2021-02-15,11350
2021-02-16,11350
2021-02-17,11350
2021-02-18,11450
2021-02-19,11450
2021-02-22,11450
2021-02-23,11450
2021-02-24,11450
2021-02-25,11650
2021-02-26,11650
2021-03-01,11650
2021-03-02,11650
2021-03-03,11650
2021-03-04,11500
2021-03-05,11500
2021-03-08,11500
2021-03-09,11500
2021-03-10,11500
2021-03-12,11500
2021-03-15,11500
2021-03-16,11500
2021-03-17,11500
2021-03-18,11550
2021-03-19,11550
2021-03-22,11550
2021-03-23,11550
2021-03-24,11550
2021-03-25,11550
2021-03-26,11550
2021-03-29,11550
2021-03-30,11550
2021-03-31,11550
2021-04-01,11550
2021-04-05,11550
2021-04-06,11550
2021-04-07,11550
2021-04-08,11550
2021-04-09,11550
2021-04-12,11550
2021-04-13,11550
2021-04-14,11550
2021-04-15,11550
2021-04-16,11550
2021-04-19,11550
2021-04-20,11550
2021-04-21,11550
2021-04-22,11500
2021-04-23,11500
2021-04-26,11500
2021-04-27,11500
2021-04-28,11500
2021-04-29,11500
2021-04-30,11500
2021-05-03,11500
2021-05-04,11500
2021-05-05,11500
2021-05-06,11500
2021-05-07,11500
2021-05-10,11500
2021-05-11,11450
2021-05-17,11450
2021-05-18,11450
2021-05-19,11450
2021-05-20,11450
2021-05-21,11450
2021-05-24,11450
2021-05-25,11450
2021-05-27,11450
2021-05-28,11450
2021-05-31,11450
